<?xml version="1.0" encoding="UTF-8" standalone="no"?>
<svg
   height="64"
   viewBox="0 -960 1280 1280"
   width="64"
   version="1.1"
   id="svg257"
   sodipodi:docname="foggy.svg"
   inkscape:version="1.2.2 (732a01da63, 2022-12-09)"
   xmlns:inkscape="http://www.inkscape.org/namespaces/inkscape"
   xmlns:sodipodi="http://sodipodi.sourceforge.net/DTD/sodipodi-0.dtd"
   xmlns="http://www.w3.org/2000/svg"
   xmlns:svg="http://www.w3.org/2000/svg">
  <defs
     id="defs261" />
  <sodipodi:namedview
     id="namedview259"
     pagecolor="#ffffff"
     bordercolor="#000000"
     borderopacity="0.25"
     inkscape:showpageshadow="2"
     inkscape:pageopacity="0.0"
     inkscape:pagecheckerboard="0"
     inkscape:deskcolor="#d1d1d1"
     showgrid="false"
     inkscape:zoom="12.271806"
     inkscape:cx="37.728758"
     inkscape:cy="31.617188"
     inkscape:window-width="1920"
     inkscape:window-height="974"
     inkscape:window-x="-11"
     inkscape:window-y="-11"
     inkscape:window-maximized="1"
     inkscape:current-layer="svg257" />
  <path
     d="m 836.8,-94.5 q -11.48,0 -20.09,-8.61 -8.61,-8.61 -8.61,-20.09 0,-11.48 8.61,-20.09 8.61,-8.61 20.09,-8.61 11.48,0 20.09,8.61 8.61,8.61 8.61,20.09 0,11.48 -8.61,20.09 -8.61,8.61 -20.09,8.61 z M 476,8 q -11.48,0 -20.09,-8.61 -8.61,-8.61 -8.61,-20.09 0,-11.48 8.61,-20.09 8.61,-8.61 20.09,-8.61 11.48,0 20.09,8.61 8.61,8.61 8.61,20.09 0,11.48 -8.61,20.09 Q 487.48,8 476,8 Z M 443.2,-94.5 q -11.48,0 -20.09,-8.61 -8.61,-8.61 -8.61,-20.09 0,-11.48 8.61,-20.09 8.61,-8.61 20.09,-8.61 h 295.2 q 11.48,0 20.09,8.61 8.61,8.61 8.61,20.09 0,11.48 -8.61,20.09 -8.61,8.61 -20.09,8.61 z M 574.4,8 q -11.48,0 -20.09,-8.61 -8.61,-8.61 -8.61,-20.09 0,-11.48 8.61,-20.09 8.61,-8.61 20.09,-8.61 H 804 q 11.48,0 20.09,8.61 8.61,8.61 8.61,20.09 0,11.48 -8.61,20.09 Q 815.48,8 804,8 Z m -90.2,-213.2 q -71.34,0 -121.77,-50.43 Q 312,-306.06 312,-377.4 q 0,-64.78 46.33,-115.62 46.33,-50.84 115.21,-55.76 26.24,-45.92 69.29,-72.57 Q 585.88,-648 640,-648 q 74.62,0 125.05,47.15 50.43,47.15 61.91,116.85 64.78,3.28 102.91,43.87 38.13,40.59 38.13,95.53 0,57.4 -40.59,98.4 -40.59,41 -98.81,41 z"
     id="path255"
     style="stroke-width:0.819999;fill:#56a0ee;fill-opacity:1" />
</svg>
